Synbol,Name,Acquisition,Retired,MapsTo

static const AR = const Modality(#AR, "Autorefraction", true, false, null);
static const AU = const Modality(#AU, "Audio", true, false, null);
static const BDUS = const Modality(#BDUS, "Bone Densitometry (ultrasound)", true, false, null);
static const BI = const Modality(#BI, "Biomagnetic imaging", true, false, null);
static const BMD = const Modality(#BMD, "Bone Densitometry (X-Ray)", true, false, null);
static const CR = const Modality(#CR, "Computed Radiography", true, false, null);
static const CT = const Modality(#CT, "Computed Tomography", true, false, null);
static const DG = const Modality(#DG, "Diaphanography", true, false, null);
static const DOC = const Modality(#DOC, "Document", false, false, null);
static const DX = const Modality(#DX, "Digital Radiography", true, false, null);
static const ECG = const Modality(#ECG, "Electrocardiography", true, false, null);
static const EPS = const Modality(#EPS, "Cardiac Electrophysiology", true, false, null);
static const ES = const Modality(#ES, "Endoscopy", true, false, null);
static const FID = const Modality(#FID, "Fiducials", true, false, null);
static const GM = const Modality(#GM, "General Microscopy", true, false, null);
static const HC = const Modality(#HC, "Hard Copy", false, false, null);
static const HD = const Modality(#HD, "Hemodynamic Waveform", true, false, null);
static const IO = const Modality(#IO, "Intra-Oral Radiography", true, false, null);
static const IOL = const Modality(#IOL, "Intraocular Lens Data", true, false, null);
static const IVOCT = const Modality(#IVOCT, "Intravascular Optical Coherence Tomography", true, false, null);
static const IVUS = const Modality(#IVUS, "Intravascular Ultrasound", true, false, null);
static const KER = const Modality(#KER, "Keratometry", true, false, null);
static const KO = const Modality(#KO, "Key Object Selection", false, false, null);
static const LEN = const Modality(#LEN, "Lensometry", true, false, null);
static const LS = const Modality(#LS, "Laser surface scan", true, false, null);
static const MG = const Modality(#MG, "Mammography", true, false, null);
static const MR = const Modality(#MR, "Magnetic Resonance", true, false, null);
static const NM = const Modality(#NM, "Nuclear Medicine", true, false, null);
static const OAM = const Modality(#OAM, "Ophthalmic Axial Measurements", false, false, null);
static const OCT = const Modality(#OCT, "Optical Coherence Tomography (non-Ophthalmic)", true, false, null);
static const OPM = const Modality(#OPM, "Ophthalmic Mapping", false, false, null);
static const OP = const Modality(#OP, "Ophthalmic Photography", true, false, null);
static const OPT = const Modality(#OPT, "Ophthalmic Tomography", true, false, null);
static const OPV = const Modality(#OPV, "Ophthalmic Visual Field", true, false, null);
static const OSS = const Modality(#OSS, "Optical Surface Scan", true, false, null);
static const OT = const Modality(#OT, "Other", false, false, null);
static const PLAN = const Modality(#PLAN, "Plan", false, false, null);
static const PR = const Modality(#PR, "Presentation State", false, false, null);
static const PT = const Modality(#PT, "Positron emission tomography (PET)", true, false, null);
static const PX = const Modality(#PX, "Panoramic X-Ray", true, false, null);
static const REG = const Modality(#REG, "Registration", false, false, null);
static const RESP = const Modality(#RESP, "Respiratory Waveform", true, false, null);
static const RF = const Modality(#RF, "Radio Fluoroscopy", true, false, null);
static const RG = const Modality(#RG, "Radiographic imaging (conventional film/screen)", true, false, null);
static const RTDOSE = const Modality(#RTDOSE, "Radiotherapy Dose", true, false, null);
static const RTIMAGE = const Modality(#RTIMAGE, "Radiotherapy Image", true, false, null);
static const RTPLAN = const Modality(#RTPLAN, "Radiotherapy Plan", false, false, null);
static const RTRECORD = const Modality(#RTRECORD, "RT Treatment Record", false, false, null);
static const RTSTRUCT = const Modality(#RTSTRUCT, "Radiotherapy Structure Set", false, false, null);
static const SEG = const Modality(#SEG, "Segmentation", false, false, null);
static const SMR = const Modality(#SMR, "Stereometric Relationship", false, false, null);
static const SM = const Modality(#SM, "Slide Microscopy", true, false, null);
static const SRF = const Modality(#SRF, "Subjective Refraction", true, false, null);
static const SR = const Modality(#SR, "SR Document", false, false, null);
static const STAIN = const Modality(#STAIN, "Automated Slide Stainer", true, false, null);
static const TG = const Modality(#TG, "Thermography", true, false, null);
static const US = const Modality(#US, "Ultrasound", true, false, null);
static const VA = const Modality(#VA, "Visual Acuity", ?, false, null);
static const XA = const Modality(#XA, "X-Ray Angiography", true, false, null);
static const XC = const Modality(#XC, "External-camera Photography", true, false, null);
static const AS = const Modality(#AS, "Angioscopy", true, true, null);
static const CD = const Modality(#CD, "Color flow Doppler", true, true, US);
static const CF = const Modality(#CF, "Cinefluorography", true, true, RF);
static const CP = const Modality(#CP, "Culposcopy", true, true, null);
static const CS = const Modality(#CS, "Cystoscopy", true, true, null);
static const DD = const Modality(#DD, "Duplex Doppler", true, true, US);
static const DF = const Modality(#DF, "Digital fluoroscopy", true, true, RF);
static const DM = const Modality(#DM, "Digital microscopy", true, true, null);
static const DS = const Modality(#DS, "Digital Subtraction Angiography", true, true, XA);
static const EC = const Modality(#EC, "Echocardiography", true, true, US);
static const FA = const Modality(#FA, "Fluorescein angiography", true, true, null);
static const FS = const Modality(#FS, "Fundoscopy", true, true, null);
static const LP = const Modality(#LP, "Laparoscopy", true, true, null);
static const MA = const Modality(#MA, "Magnetic resonance angiography", true, true, MR);
static const MS = const Modality(#MS, "Magnetic resonance spectroscopy", true, true, MR);
static const OPR = const Modality(#OPR, "Ophthalmic Refraction", true, true, null);
static const ST = const Modality(#ST, "Single-photon emission computed tomography (SPECT)", true, true, NM);
static const VF = const Modality(#VF, "Videofluorography", true, true, RF);

